what,kind,bundleId,bundleVersion,description,time
started,bundle,org.eclipse.pde.api.tools.ui,1.0.301.v20110803_r371,"org.eclipse.pde.api.tools.ui",1362241593380
started,bundle,org.eclipse.jpt.jaxb.core,1.0.1.v201108080010,"org.eclipse.jpt.jaxb.core",1362241593505
executed,command,org.eclipse.ui,3.7.0.I20110602-0100,"org.eclipse.ui.edit.text.contentAssist.proposals",1362241593536
executed,command,org.eclipse.ui,3.7.0.I20110602-0100,"org.eclipse.ui.edit.text.contentAssist.proposals",1362241601848
executed,command,org.eclipse.ui,3.7.0.I20110602-0100,"org.eclipse.ui.file.saveAll",1362241627224
executed,command,org.eclipse.ui,3.7.0.I20110602-0100,"org.eclipse.ui.file.saveAll",1362241632693
executed,command,org.eclipse.ui,3.7.0.I20110602-0100,"org.eclipse.ui.edit.delete",1362241640380
executed,command,org.eclipse.ui,3.7.0.I20110602-0100,"org.eclipse.ui.edit.delete",1362241640537
executed,command,org.eclipse.ui,3.7.0.I20110602-0100,"org.eclipse.ui.file.saveAll",1362241642943
activated,editor,org.eclipse.jdt.ui,3.7.1.r371_v20110824-0800,"org.eclipse.jdt.ui.CompilationUnitEditor",1362241643662
activated,editor,org.eclipse.jdt.ui,3.7.1.r371_v20110824-0800,"org.eclipse.jdt.ui.CompilationUnitEditor",1362241656381
executed,command,org.eclipse.ui,3.7.0.I20110602-0100,"org.eclipse.ui.file.saveAll",1362241664334
activated,view,org.eclipse.jdt.ui,3.7.1.r371_v20110824-0800,"org.eclipse.jdt.ui.PackageExplorer",1362241667068
activated,editor,org.eclipse.jdt.ui,3.7.1.r371_v20110824-0800,"org.eclipse.jdt.ui.CompilationUnitEditor",1362241667303
deactivated,workbench,org.eclipse.ui.workbench,3.7.0.I20110519-0100,"",1362241675647
activated,workbench,org.eclipse.ui.workbench,3.7.0.I20110519-0100,"",1362241677334
activated,view,org.eclipse.jdt.ui,3.7.1.r371_v20110824-0800,"org.eclipse.jdt.ui.PackageExplorer",1362241677334
deactivated,workbench,org.eclipse.ui.workbench,3.7.0.I20110519-0100,"",1362241684725
activated,workbench,org.eclipse.ui.workbench,3.7.0.I20110519-0100,"",1362241691897
deactivated,workbench,org.eclipse.ui.workbench,3.7.0.I20110519-0100,"",1362241695381
activated,workbench,org.eclipse.ui.workbench,3.7.0.I20110519-0100,"",1362241701350
opened,editor,org.eclipse.jdt.ui,3.7.1.r371_v20110824-0800,"org.eclipse.jdt.ui.CompilationUnitEditor",1362241701460
activated,editor,org.eclipse.jdt.ui,3.7.1.r371_v20110824-0800,"org.eclipse.jdt.ui.CompilationUnitEditor",1362241701538
deactivated,workbench,org.eclipse.ui.workbench,3.7.0.I20110519-0100,"",1362241703147
activated,workbench,org.eclipse.ui.workbench,3.7.0.I20110519-0100,"",1362241710335
executed,command,org.eclipse.ui,3.7.0.I20110602-0100,"org.eclipse.ui.edit.paste",1362241712413
executed,command,org.eclipse.ui,3.7.0.I20110602-0100,"org.eclipse.ui.file.saveAll",1362241738554
activated,editor,org.eclipse.jdt.ui,3.7.1.r371_v20110824-0800,"org.eclipse.jdt.ui.CompilationUnitEditor",1362241739398
deactivated,workbench,org.eclipse.ui.workbench,3.7.0.I20110519-0100,"",1362241746054
activated,workbench,org.eclipse.ui.workbench,3.7.0.I20110519-0100,"",1362241746148
executed,command,org.eclipse.ui,3.7.0.I20110602-0100,"org.eclipse.ui.file.saveAll",1362241748382
activated,view,org.eclipse.jdt.ui,3.7.1.r371_v20110824-0800,"org.eclipse.jdt.ui.PackageExplorer",1362241748773
started,bundle,org.eclipse.wst.ws.service.policy.ui,1.0.300.v201108240515,"org.eclipse.wst.ws.service.policy.ui",1362241749117
started,bundle,org.eclipse.wst.ws.service.policy,1.0.303.v201009221810,"org.eclipse.wst.ws.service.policy",1362241749117
started,bundle,org.eclipse.wst.command.env,1.0.409.v201004211805,"org.eclipse.wst.command.env",1362241749132
started,bundle,org.eclipse.wst.ws,1.1.203.v201004211805,"org.eclipse.wst.ws",1362241749132
deactivated,workbench,org.eclipse.ui.workbench,3.7.0.I20110519-0100,"",1362241753601
activated,workbench,org.eclipse.ui.workbench,3.7.0.I20110519-0100,"",1362241755367
executed,command,org.tigris.subversion.subclipse.ui,1.4.8,"org.tigris.subversion.subclipse.ui.commit",1362241755398
deactivated,workbench,org.eclipse.ui.workbench,3.7.0.I20110519-0100,"",1362241755664
activated,workbench,org.eclipse.ui.workbench,3.7.0.I20110519-0100,"",1362241757336
deactivated,workbench,org.eclipse.ui.workbench,3.7.0.I20110519-0100,"",1362241761382
activated,workbench,org.eclipse.ui.workbench,3.7.0.I20110519-0100,"",1362241765070
deactivated,workbench,org.eclipse.ui.workbench,3.7.0.I20110519-0100,"",1362241768054
activated,workbench,org.eclipse.ui.workbench,3.7.0.I20110519-0100,"",1362241804539
started,bundle,org.eclipse.wb.os,1.2.0.r37x201112290923,"org.eclipse.wb.os",1362241805851
started,bundle,org.eclipse.wb.os.win32,1.2.0.r37x201112290923,"org.eclipse.wb.os.win32",1362241805851
deactivated,workbench,org.eclipse.ui.workbench,3.7.0.I20110519-0100,"",1362241811711
activated,workbench,org.eclipse.ui.workbench,3.7.0.I20110519-0100,"",1362241822961
opened,editor,org.eclipse.jdt.ui,3.7.1.r371_v20110824-0800,"org.eclipse.jdt.ui.CompilationUnitEditor",1362241823086
activated,editor,org.eclipse.jdt.ui,3.7.1.r371_v20110824-0800,"org.eclipse.jdt.ui.CompilationUnitEditor",1362241823179
executed,command,org.eclipse.ui,3.7.0.I20110602-0100,"org.eclipse.ui.edit.selectAll",1362241824976
executed,command,org.eclipse.ui,3.7.0.I20110602-0100,"org.eclipse.ui.edit.paste",1362241825429
executed,command,org.eclipse.ui,3.7.0.I20110602-0100,"org.eclipse.ui.file.saveAll",1362241827023
activated,view,org.eclipse.jdt.ui,3.7.1.r371_v20110824-0800,"org.eclipse.jdt.ui.PackageExplorer",1362241831851
deactivated,workbench,org.eclipse.ui.workbench,3.7.0.I20110519-0100,"",1362241840273
activated,workbench,org.eclipse.ui.workbench,3.7.0.I20110519-0100,"",1362241841914
deactivated,workbench,org.eclipse.ui.workbench,3.7.0.I20110519-0100,"",1362241846836
activated,workbench,org.eclipse.ui.workbench,3.7.0.I20110519-0100,"",1362241860757
deactivated,workbench,org.eclipse.ui.workbench,3.7.0.I20110519-0100,"",1362241861039
activated,workbench,org.eclipse.ui.workbench,3.7.0.I20110519-0100,"",1362241861882
activated,editor,org.eclipse.jdt.ui,3.7.1.r371_v20110824-0800,"org.eclipse.jdt.ui.CompilationUnitEditor",1362241865351
deactivated,workbench,org.eclipse.ui.workbench,3.7.0.I20110519-0100,"",1362241870367
activated,workbench,org.eclipse.ui.workbench,3.7.0.I20110519-0100,"",1362241870507
executed,command,org.eclipse.ui,3.7.0.I20110602-0100,"org.eclipse.ui.file.saveAll",1362241874679
executed,command,org.eclipse.ui,3.7.0.I20110602-0100,"org.eclipse.ui.edit.delete",1362241887398
executed,command,org.eclipse.ui,3.7.0.I20110602-0100,"org.eclipse.ui.edit.delete",1362241887539
executed,command,org.eclipse.ui,3.7.0.I20110602-0100,"org.eclipse.ui.file.saveAll",1362241890179
activated,editor,org.eclipse.jdt.ui,3.7.1.r371_v20110824-0800,"org.eclipse.jdt.ui.CompilationUnitEditor",1362241893164
closed,editor,org.eclipse.jdt.ui,3.7.1.r371_v20110824-0800,"org.eclipse.jdt.ui.CompilationUnitEditor",1362241893164
deactivated,workbench,org.eclipse.ui.workbench,3.7.0.I20110519-0100,"",1362241894461
activated,workbench,org.eclipse.ui.workbench,3.7.0.I20110519-0100,"",1362241902867
activated,view,org.eclipse.jdt.ui,3.7.1.r371_v20110824-0800,"org.eclipse.jdt.ui.PackageExplorer",1362241905804
deactivated,workbench,org.eclipse.ui.workbench,3.7.0.I20110519-0100,"",1362241911086
activated,workbench,org.eclipse.ui.workbench,3.7.0.I20110519-0100,"",1362241921742
opened,editor,org.eclipse.jdt.ui,3.7.1.r371_v20110824-0800,"org.eclipse.jdt.ui.CompilationUnitEditor",1362241921867
activated,editor,org.eclipse.jdt.ui,3.7.1.r371_v20110824-0800,"org.eclipse.jdt.ui.CompilationUnitEditor",1362241921929
executed,command,org.eclipse.ui,3.7.0.I20110602-0100,"org.eclipse.ui.edit.selectAll",1362241923492
executed,command,org.eclipse.ui,3.7.0.I20110602-0100,"org.eclipse.ui.edit.paste",1362241923851
executed,command,org.eclipse.ui,3.7.0.I20110602-0100,"org.eclipse.ui.edit.delete",1362241928101
executed,command,org.eclipse.ui,3.7.0.I20110602-0100,"org.eclipse.ui.edit.delete",1362241928242
executed,command,org.eclipse.ui,3.7.0.I20110602-0100,"org.eclipse.ui.edit.delete",1362241934695
executed,command,org.eclipse.ui,3.7.0.I20110602-0100,"org.eclipse.ui.edit.delete",1362241934804
executed,command,org.eclipse.ui,3.7.0.I20110602-0100,"org.eclipse.ui.file.saveAll",1362241951382
deactivated,workbench,org.eclipse.ui.workbench,3.7.0.I20110519-0100,"",1362241963445
activated,workbench,org.eclipse.ui.workbench,3.7.0.I20110519-0100,"",1362241963539
executed,command,org.eclipse.ui,3.7.0.I20110602-0100,"org.eclipse.ui.file.saveAll",1362241965851
activated,view,org.eclipse.jdt.ui,3.7.1.r371_v20110824-0800,"org.eclipse.jdt.ui.PackageExplorer",1362242238320
activated,editor,org.eclipse.jdt.ui,3.7.1.r371_v20110824-0800,"org.eclipse.jdt.ui.CompilationUnitEditor",1362242241148
started,bundle,org.eclipse.wst.server.ui,1.1.306.v20110823_1704,"org.eclipse.wst.server.ui",1362242248820
started,bundle,com.google.gdt.eclipse.suite,2.5.1.v201201120043-rel-r37,"com.google.gdt.eclipse.suite",1362242250211
deactivated,workbench,org.eclipse.ui.workbench,3.7.0.I20110519-0100,"",1362242251101
activated,workbench,org.eclipse.ui.workbench,3.7.0.I20110519-0100,"",1362242251179
started,bundle,com.google.gdt.eclipse.maven,2.5.1.v201201120043-rel-r37,"com.google.gdt.eclipse.maven",1362242251273
deactivated,workbench,org.eclipse.ui.workbench,3.7.0.I20110519-0100,"",1362242253117
opened,view,org.eclipse.ui.console,3.5.100.v20110511,"org.eclipse.ui.console.ConsoleView",1362242258711
activated,workbench,org.eclipse.ui.workbench,3.7.0.I20110519-0100,"",1362242260664
activated,view,org.eclipse.jdt.ui,3.7.1.r371_v20110824-0800,"org.eclipse.jdt.ui.PackageExplorer",1362242269101
activated,editor,org.eclipse.jdt.ui,3.7.1.r371_v20110824-0800,"org.eclipse.jdt.ui.CompilationUnitEditor",1362242274976
executed,command,,,"AUTOGEN:::org.eclipse.jdt.debug.CompilationUnitEditor.BreakpointRulerActions/org.eclipse.jdt.debug.ui.actions.ManageBreakpointRulerAction",1362242306773
deactivated,workbench,org.eclipse.ui.workbench,3.7.0.I20110519-0100,"",1362242312461
activated,workbench,org.eclipse.ui.workbench,3.7.0.I20110519-0100,"",1362242313804
deactivated,workbench,org.eclipse.ui.workbench,3.7.0.I20110519-0100,"",1362242313804
activated,workbench,org.eclipse.ui.workbench,3.7.0.I20110519-0100,"",1362242315382
opened,view,org.eclipse.debug.ui,3.7.101.v20110817_r371,"org.eclipse.debug.ui.DebugView",1362242315539
opened,view,org.eclipse.debug.ui,3.7.101.v20110817_r371,"org.eclipse.debug.ui.VariableView",1362242315586
activated,perspective,org.eclipse.debug.ui,3.7.101.v20110817_r371,"org.eclipse.debug.ui.DebugPerspective",1362242315617
opened,view,org.eclipse.debug.ui,3.7.101.v20110817_r371,"org.eclipse.debug.ui.BreakpointView",1362242316273
activated,view,org.eclipse.debug.ui,3.7.101.v20110817_r371,"org.eclipse.debug.ui.DebugView",1362242318351
executed,command,org.eclipse.debug.ui,3.7.101.v20110817_r371,"org.eclipse.debug.ui.commands.StepOver",1362242318445
executed,command,org.eclipse.debug.ui,3.7.101.v20110817_r371,"org.eclipse.debug.ui.commands.StepOver",1362242318867
executed,command,org.eclipse.debug.ui,3.7.101.v20110817_r371,"org.eclipse.debug.ui.commands.StepOver",1362242319367
executed,command,org.eclipse.debug.ui,3.7.101.v20110817_r371,"org.eclipse.debug.ui.commands.StepOver",1362242319882
executed,command,org.eclipse.debug.ui,3.7.101.v20110817_r371,"org.eclipse.debug.ui.commands.StepOver",1362242320429
executed,command,org.eclipse.debug.ui,3.7.101.v20110817_r371,"org.eclipse.debug.ui.commands.StepInto",1362242321867
opened,editor,org.eclipse.debug.ui,3.7.101.v20110817_r371,"org.eclipse.debug.ui.sourcelookup.CommonSourceNotFoundEditor",1362242322007
executed,command,org.eclipse.debug.ui,3.7.101.v20110817_r371,"org.eclipse.debug.ui.commands.Terminate",1362242325211
closed,editor,org.eclipse.debug.ui,3.7.101.v20110817_r371,"org.eclipse.debug.ui.sourcelookup.CommonSourceNotFoundEditor",1362242325257
activated,editor,org.eclipse.jdt.ui,3.7.1.r371_v20110824-0800,"org.eclipse.jdt.ui.CompilationUnitEditor",1362242328898
executed,command,org.eclipse.ui.workbench.texteditor,3.7.0.v20110505-0800,"org.eclipse.ui.edit.text.select.lineStart",1362242332851
executed,command,org.eclipse.ui.workbench.texteditor,3.7.0.v20110505-0800,"org.eclipse.ui.edit.text.select.lineStart",1362242332945
executed,command,org.eclipse.ui,3.7.0.I20110602-0100,"org.eclipse.ui.file.saveAll",1362242337461
activated,perspective,org.eclipse.jdt.ui,3.7.1.r371_v20110824-0800,"org.eclipse.jdt.ui.JavaPerspective",1362242338257
deactivated,workbench,org.eclipse.ui.workbench,3.7.0.I20110519-0100,"",1362242345226
activated,workbench,org.eclipse.ui.workbench,3.7.0.I20110519-0100,"",1362242345304
deactivated,workbench,org.eclipse.ui.workbench,3.7.0.I20110519-0100,"",1362242347101
activated,workbench,org.eclipse.ui.workbench,3.7.0.I20110519-0100,"",1362242348648
deactivated,workbench,org.eclipse.ui.workbench,3.7.0.I20110519-0100,"",1362242349429
activated,workbench,org.eclipse.ui.workbench,3.7.0.I20110519-0100,"",1362242350836
deactivated,workbench,org.eclipse.ui.workbench,3.7.0.I20110519-0100,"",1362242357929
activated,workbench,org.eclipse.ui.workbench,3.7.0.I20110519-0100,"",1362242358023
deactivated,workbench,org.eclipse.ui.workbench,3.7.0.I20110519-0100,"",1362242360992
activated,workbench,org.eclipse.ui.workbench,3.7.0.I20110519-0100,"",1362242361914
deactivated,workbench,org.eclipse.ui.workbench,3.7.0.I20110519-0100,"",1362242364789
activated,workbench,org.eclipse.ui.workbench,3.7.0.I20110519-0100,"",1362242371929
deactivated,workbench,org.eclipse.ui.workbench,3.7.0.I20110519-0100,"",1362242377132
activated,workbench,org.eclipse.ui.workbench,3.7.0.I20110519-0100,"",1362242626631
deactivated,workbench,org.eclipse.ui.workbench,3.7.0.I20110519-0100,"",1362242639943
activated,workbench,org.eclipse.ui.workbench,3.7.0.I20110519-0100,"",1362242648131
deactivated,workbench,org.eclipse.ui.workbench,3.7.0.I20110519-0100,"",1362242649646
activated,workbench,org.eclipse.ui.workbench,3.7.0.I20110519-0100,"",1362242768567
activated,view,org.eclipse.jdt.ui,3.7.1.r371_v20110824-0800,"org.eclipse.jdt.ui.PackageExplorer",1362242894629
deactivated,workbench,org.eclipse.ui.workbench,3.7.0.I20110519-0100,"",1362242902473
started,bundle,org.eclipse.wb.swing,1.2.0.r37x201109270434,"org.eclipse.wb.swing",1362242921504
activated,workbench,org.eclipse.ui.workbench,3.7.0.I20110519-0100,"",1362242927207
executed,command,org.eclipse.ui,3.7.0.I20110602-0100,"org.eclipse.ui.newWizard",1362242927238
deactivated,workbench,org.eclipse.ui.workbench,3.7.0.I20110519-0100,"",1362242935222
activated,workbench,org.eclipse.ui.workbench,3.7.0.I20110519-0100,"",1362244019856
deactivated,workbench,org.eclipse.ui.workbench,3.7.0.I20110519-0100,"",1362244025044
activated,workbench,org.eclipse.ui.workbench,3.7.0.I20110519-0100,"",1362244029262
activated,editor,org.eclipse.jdt.ui,3.7.1.r371_v20110824-0800,"org.eclipse.jdt.ui.CompilationUnitEditor",1362244040012
executed,command,org.eclipse.ui,3.7.0.I20110602-0100,"org.eclipse.ui.edit.text.contentAssist.proposals",1362244043418
executed,command,org.eclipse.ui,3.7.0.I20110602-0100,"org.eclipse.ui.edit.text.contentAssist.proposals",1362244050075
executed,command,org.eclipse.ui.workbench.texteditor,3.7.0.v20110505-0800,"org.eclipse.ui.edit.text.select.lineStart",1362244052622
executed,command,org.eclipse.ui.workbench.texteditor,3.7.0.v20110505-0800,"org.eclipse.ui.edit.text.goto.lineEnd",1362244054043
executed,command,org.eclipse.ui.workbench.texteditor,3.7.0.v20110505-0800,"org.eclipse.ui.edit.text.select.lineStart",1362244054372
executed,command,org.eclipse.ui.workbench.texteditor,3.7.0.v20110505-0800,"org.eclipse.ui.edit.text.goto.lineEnd",1362244056528
executed,command,org.eclipse.ui.workbench.texteditor,3.7.0.v20110505-0800,"org.eclipse.ui.edit.text.select.lineStart",1362244056981
executed,command,org.eclipse.ui,3.7.0.I20110602-0100,"org.eclipse.ui.edit.text.contentAssist.proposals",1362244058871
executed,command,org.eclipse.ui,3.7.0.I20110602-0100,"org.eclipse.ui.edit.text.contentAssist.proposals",1362244063840
deactivated,workbench,org.eclipse.ui.workbench,3.7.0.I20110519-0100,"",1362244070309
activated,workbench,org.eclipse.ui.workbench,3.7.0.I20110519-0100,"",1362244070387
executed,command,,,"AUTOGEN:::org.eclipse.jdt.debug.CompilationUnitEditor.BreakpointRulerActions/org.eclipse.jdt.debug.ui.actions.ManageBreakpointRulerAction",1362244075200
executed,command,,,"AUTOGEN:::org.eclipse.jdt.debug.CompilationUnitEditor.BreakpointRulerActions/org.eclipse.jdt.debug.ui.actions.ManageBreakpointRulerAction",1362244077246
deactivated,workbench,org.eclipse.ui.workbench,3.7.0.I20110519-0100,"",1362244080809
activated,workbench,org.eclipse.ui.workbench,3.7.0.I20110519-0100,"",1362244082043
deactivated,workbench,org.eclipse.ui.workbench,3.7.0.I20110519-0100,"",1362244085371
activated,workbench,org.eclipse.ui.workbench,3.7.0.I20110519-0100,"",1362244086496
deactivated,workbench,org.eclipse.ui.workbench,3.7.0.I20110519-0100,"",1362244086496
activated,workbench,org.eclipse.ui.workbench,3.7.0.I20110519-0100,"",1362244087653
activated,perspective,org.eclipse.debug.ui,3.7.101.v20110817_r371,"org.eclipse.debug.ui.DebugPerspective",1362244087684
activated,view,org.eclipse.debug.ui,3.7.101.v20110817_r371,"org.eclipse.debug.ui.DebugView",1362244089043
executed,command,org.eclipse.debug.ui,3.7.101.v20110817_r371,"org.eclipse.debug.ui.commands.StepOver",1362244089137
opened,editor,org.eclipse.debug.ui,3.7.101.v20110817_r371,"org.eclipse.debug.ui.sourcelookup.CommonSourceNotFoundEditor",1362244089184
executed,command,org.eclipse.debug.ui,3.7.101.v20110817_r371,"org.eclipse.debug.ui.commands.StepOver",1362244093903
executed,command,org.eclipse.debug.ui,3.7.101.v20110817_r371,"org.eclipse.debug.ui.commands.StepOver",1362244094637
executed,command,org.eclipse.debug.ui,3.7.101.v20110817_r371,"org.eclipse.debug.ui.commands.StepOver",1362244095262
executed,command,org.eclipse.debug.ui,3.7.101.v20110817_r371,"org.eclipse.debug.ui.commands.StepOver",1362244095543
executed,command,org.eclipse.debug.ui,3.7.101.v20110817_r371,"org.eclipse.debug.ui.commands.StepOver",1362244095840
executed,command,org.eclipse.debug.ui,3.7.101.v20110817_r371,"org.eclipse.debug.ui.commands.StepOver",1362244095996
executed,command,org.eclipse.debug.ui,3.7.101.v20110817_r371,"org.eclipse.debug.ui.commands.StepReturn",1362244096746
executed,command,org.eclipse.debug.ui,3.7.101.v20110817_r371,"org.eclipse.debug.ui.commands.StepReturn",1362244098434
executed,command,org.eclipse.debug.ui,3.7.101.v20110817_r371,"org.eclipse.debug.ui.commands.StepReturn",1362244099559
executed,command,org.eclipse.debug.ui,3.7.101.v20110817_r371,"org.eclipse.debug.ui.commands.StepReturn",1362244100293
executed,command,org.eclipse.debug.ui,3.7.101.v20110817_r371,"org.eclipse.debug.ui.commands.StepReturn",1362244100871
executed,command,org.eclipse.debug.ui,3.7.101.v20110817_r371,"org.eclipse.debug.ui.commands.StepReturn",1362244101574
executed,command,org.eclipse.debug.ui,3.7.101.v20110817_r371,"org.eclipse.debug.ui.commands.StepReturn",1362244103262
executed,command,org.eclipse.debug.ui,3.7.101.v20110817_r371,"org.eclipse.debug.ui.commands.StepReturn",1362244104277
executed,command,org.eclipse.debug.ui,3.7.101.v20110817_r371,"org.eclipse.debug.ui.commands.StepOver",1362244107481
executed,command,org.eclipse.debug.ui,3.7.101.v20110817_r371,"org.eclipse.debug.ui.commands.StepReturn",1362244108106
executed,command,org.eclipse.debug.ui,3.7.101.v20110817_r371,"org.eclipse.debug.ui.commands.Terminate",1362244117137
closed,editor,org.eclipse.debug.ui,3.7.101.v20110817_r371,"org.eclipse.debug.ui.sourcelookup.CommonSourceNotFoundEditor",1362244117262
activated,perspective,org.eclipse.jdt.ui,3.7.1.r371_v20110824-0800,"org.eclipse.jdt.ui.JavaPerspective",1362244121137
activated,editor,org.eclipse.jdt.ui,3.7.1.r371_v20110824-0800,"org.eclipse.jdt.ui.CompilationUnitEditor",1362244121152
executed,command,,,"AUTOGEN:::org.eclipse.jdt.debug.CompilationUnitEditor.BreakpointRulerActions/org.eclipse.jdt.debug.ui.actions.ManageBreakpointRulerAction",1362244123855
deactivated,workbench,org.eclipse.ui.workbench,3.7.0.I20110519-0100,"",1362244128246
activated,workbench,org.eclipse.ui.workbench,3.7.0.I20110519-0100,"",1362244129402
deactivated,workbench,org.eclipse.ui.workbench,3.7.0.I20110519-0100,"",1362244129418
activated,workbench,org.eclipse.ui.workbench,3.7.0.I20110519-0100,"",1362244131199
activated,perspective,org.eclipse.debug.ui,3.7.101.v20110817_r371,"org.eclipse.debug.ui.DebugPerspective",1362244131230
activated,view,org.eclipse.debug.ui,3.7.101.v20110817_r371,"org.eclipse.debug.ui.DebugView",1362244133105
executed,command,org.eclipse.debug.ui,3.7.101.v20110817_r371,"org.eclipse.debug.ui.commands.Resume",1362244133184
executed,command,org.eclipse.debug.ui,3.7.101.v20110817_r371,"org.eclipse.debug.ui.commands.Terminate",1362244135809
activated,perspective,org.eclipse.jdt.ui,3.7.1.r371_v20110824-0800,"org.eclipse.jdt.ui.JavaPerspective",1362244143433
activated,editor,org.eclipse.jdt.ui,3.7.1.r371_v20110824-0800,"org.eclipse.jdt.ui.CompilationUnitEditor",1362244143449
executed,command,org.eclipse.ui,3.7.0.I20110602-0100,"org.eclipse.ui.edit.delete",1362244147590
executed,command,org.eclipse.ui.workbench.texteditor,3.7.0.v20110505-0800,"org.eclipse.ui.edit.text.select.lineStart",1362244266698
executed,command,org.eclipse.ui.workbench.texteditor,3.7.0.v20110505-0800,"org.eclipse.ui.edit.text.select.lineStart",1362244269339
executed,command,org.eclipse.ui.workbench.texteditor,3.7.0.v20110505-0800,"org.eclipse.ui.edit.text.select.lineStart",1362244269495
executed,command,org.eclipse.ui,3.7.0.I20110602-0100,"org.eclipse.ui.file.saveAll",1362244272448
deactivated,workbench,org.eclipse.ui.workbench,3.7.0.I20110519-0100,"",1362244327089
activated,workbench,org.eclipse.ui.workbench,3.7.0.I20110519-0100,"",1362244438369
deactivated,workbench,org.eclipse.ui.workbench,3.7.0.I20110519-0100,"",1362244439088
activated,workbench,org.eclipse.ui.workbench,3.7.0.I20110519-0100,"",1362244441885
deactivated,workbench,org.eclipse.ui.workbench,3.7.0.I20110519-0100,"",1362244444775
activated,workbench,org.eclipse.ui.workbench,3.7.0.I20110519-0100,"",1362244585149
executed,command,org.eclipse.ui.workbench.texteditor,3.7.0.v20110505-0800,"org.eclipse.ui.edit.text.select.lineStart",1362244596899
executed,command,org.eclipse.ui.workbench.texteditor,3.7.0.v20110505-0800,"org.eclipse.ui.edit.text.select.lineStart",1362244597071
executed,command,org.eclipse.jdt.ui,3.7.1.r371_v20110824-0800,"org.eclipse.jdt.ui.edit.text.java.toggle.comment",1362244607930
started,bundle,org.eclipse.mylyn.java.tasks,3.6.0.v20110608-1400,"org.eclipse.mylyn.java.tasks",1362244611446
executed,command,org.eclipse.ui,3.7.0.I20110602-0100,"org.eclipse.ui.edit.undo",1362244612180
executed,command,org.eclipse.ui.workbench.texteditor,3.7.0.v20110505-0800,"org.eclipse.ui.edit.text.select.lineStart",1362244616540
executed,command,org.eclipse.ui.workbench.texteditor,3.7.0.v20110505-0800,"org.eclipse.ui.edit.text.select.lineStart",1362244616743
executed,command,org.eclipse.jdt.ui,3.7.1.r371_v20110824-0800,"org.eclipse.jdt.ui.edit.text.java.toggle.comment",1362244617884
executed,command,org.eclipse.jdt.ui,3.7.1.r371_v20110824-0800,"org.eclipse.jdt.ui.edit.text.java.toggle.comment",1362244620571
executed,command,org.eclipse.ui.workbench.texteditor,3.7.0.v20110505-0800,"org.eclipse.ui.edit.text.goto.lineStart",1362244631352
executed,command,org.eclipse.jdt.ui,3.7.1.r371_v20110824-0800,"org.eclipse.jdt.ui.edit.text.java.toggle.comment",1362244632633
deactivated,workbench,org.eclipse.ui.workbench,3.7.0.I20110519-0100,"",1362244638602
activated,workbench,org.eclipse.ui.workbench,3.7.0.I20110519-0100,"",1362244640227
deactivated,workbench,org.eclipse.ui.workbench,3.7.0.I20110519-0100,"",1362244641633
activated,workbench,org.eclipse.ui.workbench,3.7.0.I20110519-0100,"",1362244641868
deactivated,workbench,org.eclipse.ui.workbench,3.7.0.I20110519-0100,"",1362244641868
activated,workbench,org.eclipse.ui.workbench,3.7.0.I20110519-0100,"",1362244643352
activated,perspective,org.eclipse.debug.ui,3.7.101.v20110817_r371,"org.eclipse.debug.ui.DebugPerspective",1362244643383
activated,view,org.eclipse.debug.ui,3.7.101.v20110817_r371,"org.eclipse.debug.ui.DebugView",1362244645305
executed,command,org.eclipse.debug.ui,3.7.101.v20110817_r371,"org.eclipse.debug.ui.commands.StepOver",1362244645352
executed,command,org.eclipse.debug.ui,3.7.101.v20110817_r371,"org.eclipse.debug.ui.commands.StepOver",1362244646165
executed,command,org.eclipse.debug.ui,3.7.101.v20110817_r371,"org.eclipse.debug.ui.commands.StepOver",1362244646743
executed,command,org.eclipse.debug.ui,3.7.101.v20110817_r371,"org.eclipse.debug.ui.commands.StepOver",1362244647493
executed,command,org.eclipse.debug.ui,3.7.101.v20110817_r371,"org.eclipse.debug.ui.commands.StepOver",1362244648008
executed,command,org.eclipse.debug.ui,3.7.101.v20110817_r371,"org.eclipse.debug.ui.commands.StepOver",1362244648477
opened,editor,org.eclipse.debug.ui,3.7.101.v20110817_r371,"org.eclipse.debug.ui.sourcelookup.CommonSourceNotFoundEditor",1362244648602
executed,command,org.eclipse.debug.ui,3.7.101.v20110817_r371,"org.eclipse.debug.ui.commands.StepOver",1362244652102
executed,command,org.eclipse.debug.ui,3.7.101.v20110817_r371,"org.eclipse.debug.ui.commands.StepReturn",1362244656899
executed,command,org.eclipse.debug.ui,3.7.101.v20110817_r371,"org.eclipse.debug.ui.commands.Terminate",1362244664618
closed,editor,org.eclipse.debug.ui,3.7.101.v20110817_r371,"org.eclipse.debug.ui.sourcelookup.CommonSourceNotFoundEditor",1362244664680
activated,editor,org.eclipse.jdt.ui,3.7.1.r371_v20110824-0800,"org.eclipse.jdt.ui.CompilationUnitEditor",1362244667930
activated,view,org.eclipse.ui.console,3.5.100.v20110511,"org.eclipse.ui.console.ConsoleView",1362244670633
executed,command,org.eclipse.ui,3.7.0.I20110602-0100,"org.eclipse.ui.edit.copy",1362244672086
deactivated,workbench,org.eclipse.ui.workbench,3.7.0.I20110519-0100,"",1362244673352
